<?xml version="1.0" encoding="UTF-8" standalone="no"?>
<svg width="12" height="12" viewBox="0 0 12 12" version="1.1" xmlns="http://www.w3.org/2000/svg" xmlns:xlink="http://www.w3.org/1999/xlink">
  <rect width="12" height="12" rx="2" fill="#0049B0"></rect>
  <path fill="#FFFFFF" d="M9.374 4.914L5.456 8.832a.769.769 0 0 1-1.088 0L2.626 7.091a.769.769 0 1 1 1.088-1.089L4.912 7.2l3.374-3.374a.769.769 0 1 1 1.088 1.088"></path>
</svg>
